{
  "header" : {
    "memory_usage" : 139174112,
    "memory_usage_real" : 159387648,
    "peak_memory_usage" : 145966552,
    "peak_memory_usage_real" : 161484800
  },
  "items": {
    "a" : {
        "type" : "object",
        "size" : "72",
        "is_root" : false
,
        "class" : "clsTaengine",
        "object_handle" : "25118",
        "children" : {
            "payclass_row":"0x7fe7d20400d8",
            "isarchive":"0x7fe7d20400f8",
            "laborAllocationCategories":"0x7fe7d2041148"
        }
    },
    "0x7fe7d20400d8" : {
        "type" : "array",
        "size" : "72",
        "is_root" : false
,
        "children" : {
            "clientcode":"0x7fe7d2d65020",
            "payclscode":"0x7fe7d2d65060",
            "payclsdesc":"0x7fe7d2d650a0"
        }
    },
    "0x7fe7d20400f8" : {
        "type" : "int",
        "size" : "16",
        "is_root" : false
    },
    "0x7fe7d2d65020" : {
        "type" : "string",
        "size" : "30",
        "is_root" : false
    },
    "0x7fe7d2d65060" : {
        "type" : "string",
        "size" : "40",
        "is_root" : false
    },
    "0x7fe7d2d650a0" : {
        "type" : "string",
        "size" : "50",
        "is_root" : false
    },
    "0x7fe7d2041148" : {
        "type" : "array",
        "size" : "72",
        "is_root" : false
,
        "children" : {
            "0":"0x7fe7d2002908",
            "1":"0x7fe7d2002928",
            "2":"0x7fe7d2002948",
            "loopie":"loop"
        }

    },
    "0x7fe7d2002908" : {
        "type" : "int",
        "size" : "16",
        "is_root" : false
    },
    "0x7fe7d2002928" : {
        "type" : "int",
        "size" : "18",
        "is_root" : false
    },
    "0x7fe7d2002948" : {
        "type" : "int",
        "size" : "20",
        "is_root" : false
    },
    "loop" : {
        "type" : "array",
	    "size": "72",
	    "is_root": false,
	    "children": {
		    "0": "a"
	    }
    }
}
}
